[
	{
		"name": "Amlodipine Besylate",
		"weight": 1.63,
		"desc": "ante dictum cursus. Nunc mauris elit, dictum eu, eleifend nec, malesuada ut, sem. Nulla interdum. Curabitur dictum. Phasellus in felis. Nulla tempor augue ac",
		"price": 0.03
	},
	{
		"name": "Warfarin Sodium",
		"weight": 0.60,
		"desc": "id, libero. Donec consectetuer mauris id sapien. Cras dolor dolor, tempus non, lacinia at, iaculis quis, pede. Praesent eu dui. Cum sociis natoque penatibus",
		"price": 3.40
	},
	{
		"name": "Flovent HFA",
		"weight": 1.69,
		"desc": "eros. Proin ultrices. Duis volutpat nunc sit amet metus. Aliquam erat volutpat. Nulla facilisis. Suspendisse commodo tincidunt",
		"price": 2.82
	},
	{
		"name": "Proair HFA",
		"weight": 1.62,
		"desc": "volutpat. Nulla dignissim. Maeprices ornare egestas ligula. Nullam feugiat placerat velit. Quisque varius. Nam porttitor scelerisque neque. Nullam nisl. Maeprices malesuada fringilla est. Mauris eu turpis. Nulla aliquet.",
		"price": 7.96
	},
	{
		"name": "Amoxicillin",
		"weight": 0.85,
		"desc": "lacinia vitae, sodales at, velit. Pellentesque ultricies dignissim lacus. Aliquam rutrum lorem ac risus. Morbi metus. Vivamus euismod urna. Nullam lobortis quam a felis ullamcorper viverra. Maeprices iaculis",
		"price": 7.98
	},
	{
		"name": "Suboxone",
		"weight": 1.97,
		"desc": "cursus in, hendrerit consectetuer, cursus et, magna. Praesent interdum ligula eu enim. Etiam imperdiet dictum magna. Ut tincidunt orci quis lectus. Nullam suscipit, est ac facilisis facilisis,",
		"price": 5.11
	},
	{
		"name": "Digoxin",
		"weight": 1.94,
		"desc": "magna. Praesent interdum ligula eu enim. Etiam imperdiet dictum magna. Ut tincidunt orci quis lectus. Nullam suscipit, est ac facilisis facilisis, magna tellus faucibus leo, in lobortis tellus justo sit",
		"price": 1.70
	},
	{
		"name": "Simvastatin",
		"weight": 0.19,
		"desc": "libero est, congue a, aliquet vel, vulputate eu, odio. Phasellus at",
		"price": 2.33
	}
]