[
	{
		"name": "Ulla",
		"email": "enim.consequat@luctusetultrices.net",
		"role": "user"
	},
	{
		"name": "Zelenia",
		"email": "cursus.Nunc@dolor.com",
		"role": "user"
	},
	{
		"name": "Jenna",
		"email": "et@urna.com",
		"role": "user"
	},
	{
		"name": "Rose",
		"email": "faucibus@sitamet.edu",
		"role": "user"
	},
	{
		"name": "Sade",
		"email": "ultrices.posuere@malesuadaiderat.co.uk",
		"role": "user"
	},
	{
		"name": "Carlos",
		"email": "magna.Cras@mauris.com",
		"role": "user"
	},
	{
		"name": "Chancellor",
		"email": "magnis.dis@tristiquesenectus.net",
		"role": "user"
	},
	{
		"name": "Angela",
		"email": "blandit.mattis.Cras@convallis.net",
		"role": "user"
	},
	{
		"name": "Christine",
		"email": "placerat.Cras@ipsum.com",
		"role": "user"
	},
	{
		"name": "Bethany",
		"email": "Nunc.mauris.sapien@Sednuncest.edu",
		"role": "user"
	},
	{
		"name": "Quintessa",
		"email": "nulla@fermentumfermentum.net",
		"role": "user"
	},
	{
		"name": "Elaine",
		"email": "arcu.Nunc.mauris@nonegestas.org",
		"role": "user"
	},
	{
		"name": "Macaulay",
		"email": "In@Integervulputate.ca",
		"role": "user"
	},
	{
		"name": "Justina",
		"email": "at.risus.Nunc@augueidante.net",
		"role": "user"
	},
	{
		"name": "Chloe",
		"email": "mi.ac.mattis@nec.com",
		"role": "user"
	},
	{
		"name": "Sheila",
		"email": "a.purus@quam.ca",
		"role": "user"
	},
	{
		"name": "Cairo",
		"email": "a.magna.Lorem@uteros.co.uk",
		"role": "user"
	},
	{
		"name": "Molly",
		"email": "felis@ametanteVivamus.edu",
		"role": "user"
	}
]